<?xml version="1.0" encoding="UTF-8" standalone="no"?>
<!-- Created with Inkscape (http://www.inkscape.org/) -->

<svg
   xmlns:dc="http://purl.org/dc/elements/1.1/"
   xmlns:cc="http://creativecommons.org/ns#"
   xmlns:rdf="http://www.w3.org/1999/02/22-rdf-syntax-ns#"
   xmlns:svg="http://www.w3.org/2000/svg"
   xmlns="http://www.w3.org/2000/svg"
   xmlns:sodipodi="http://sodipodi.sourceforge.net/DTD/sodipodi-0.dtd"
   xmlns:inkscape="http://www.inkscape.org/namespaces/inkscape"
   width="11.234109mm"
   height="15.146142mm"
   viewBox="0 0 39.805898 53.667432"
   id="svg6461"
   version="1.1"
   inkscape:version="0.91 r"
   sodipodi:docname="rabbitFeeling.svg">
  <defs
     id="defs6463">
    <clipPath
       clipPathUnits="userSpaceOnUse"
       id="clipPath142">
      <path
         d="m 5975.01,5520.57 c 0,0.01 0,0.03 -0.01,0.04 0.01,-0.01 0.01,-0.03 0.01,-0.04"
         id="path144"
         inkscape:connector-curvature="0" />
    </clipPath>
  </defs>
  <sodipodi:namedview
     id="base"
     pagecolor="#ffffff"
     bordercolor="#666666"
     borderopacity="1.0"
     inkscape:pageopacity="0.0"
     inkscape:pageshadow="2"
     inkscape:zoom="18.654361"
     inkscape:cx="25.162017"
     inkscape:cy="16.894608"
     inkscape:document-units="px"
     inkscape:current-layer="g6313"
     showgrid="false"
     fit-margin-top="0"
     fit-margin-left="0"
     fit-margin-right="0"
     fit-margin-bottom="0"
     inkscape:window-width="1366"
     inkscape:window-height="744"
     inkscape:window-x="0"
     inkscape:window-y="24"
     inkscape:window-maximized="1" />
  <metadata
     id="metadata6466">
    <rdf:RDF>
      <cc:Work
         rdf:about="">
        <dc:format>image/svg+xml</dc:format>
        <dc:type
           rdf:resource="http://purl.org/dc/dcmitype/StillImage" />
        <dc:title></dc:title>
      </cc:Work>
    </rdf:RDF>
  </metadata>
  <g
     inkscape:label="Layer 1"
     inkscape:groupmode="layer"
     id="layer1"
     transform="translate(-94.117425,-397.20344)">
    <g
       style="display:inline"
       transform="matrix(0.0244764,0,0,-0.0244764,-41.914597,549.81066)"
       id="g6313">
      <path
         inkscape:connector-curvature="0"
         id="path6315"
         style="fill:#d9f1d8;fill-opacity:1;fill-rule:nonzero;stroke:none"
         d="m 6810.13,4092.81 c 0,0 -123.23,304.05 -284.1,456.64 -160.88,152.59 -520,63.37 -687.06,-413.06 0,0 529.02,-136.39 971.16,-43.58" />
      <g
         id="g6317">
        <g
           clip-path="url(#clipPath142)"
           id="g6319">
          <path
             inkscape:connector-curvature="0"
             id="path6321"
             style="fill:#46a688;fill-opacity:1;fill-rule:nonzero;stroke:none"
             d="m 5975,5520.57 0.012,0 0,0.039 -0.012,0 0,-0.039 z" />
        </g>
      </g>
      <path
         inkscape:connector-curvature="0"
         id="path6323"
         style="fill:#93ac46;fill-opacity:1;fill-rule:nonzero;stroke:none"
         d="m 6984.03,5660 c -5.22,3.18 -10.39,6.39 -15.55,9.65 6.58,2.12 13.25,4.01 19.97,5.65 -1.48,-5.1 -2.85,-10.2 -4.42,-15.3 l 0,0" />
      <path
         inkscape:connector-curvature="0"
         id="path6325"
         style="fill:#fbd0c8;fill-opacity:1;fill-rule:nonzero;stroke:none"
         d="m 6543.7957,5551.5065 c 0,0 146.5106,-372.4153 340.7729,-463.9751 l -46.1948,-94.3883 c 0,0 -428.8412,267.3539 -447.1443,454.7173 l 152.5662,103.6461" />
      <path
         inkscape:connector-curvature="0"
         id="path6327"
         style="fill:#ffffff;fill-opacity:1;fill-rule:nonzero;stroke:none"
         d="m 6776.2533,4994.1909 c 0,0 -558.3589,307.2536 -405.1114,628.7941 153.268,321.5496 657.662,485.4785 797.03,258.7782 139.368,-226.7002 -688.7411,-459.2995 -688.7411,-459.2995 0,0 89.5536,-222.4545 344.0274,-384.5399 l -47.2049,-43.7329" />
      <path
         inkscape:connector-curvature="0"
         id="path6329"
         style="fill:#ffffff;fill-opacity:1;fill-rule:nonzero;stroke:none"
         d="m 6092.8377,4950.8703 c -1.0588,0.5635 -1.7184,0.9109 -1.7184,0.9109 0.052,-14.0583 113.2275,335.1547 42.1524,654.3827 -47.6293,324.8553 -279.55,619.7306 -427.5606,627.1289 -291.926,25.4145 3.1278,-259.445 111.7446,-603.2244 124.267,-330.9155 102.5818,-638.6525 104.3335,-668.0915 5.8125,-20.0922 13.176,-38.9771 20.2128,-58.1015 32.6911,-65.6013 98.2532,-20.9541 150.8357,46.9949" />
      <path
         inkscape:connector-curvature="0"
         id="path6331"
         style="fill:#fbd0c8;fill-opacity:1;fill-rule:nonzero;stroke:none"
         d="m 5980.1988,5045.4591 c 6.3315,33.0496 10.6562,360.9839 -85.1808,597.0292 -84.0808,266.9016 -274.005,505.7517 -192.9686,498.0922 97.8496,-4.558 249.1342,-173.6165 314.8444,-385.504 75.1461,-207.6468 64.7236,-458.1354 57.4813,-528.1812 -26.0348,-317.2522 -111.127,-364.1273 -94.1763,-181.4362" />
      <path
         inkscape:connector-curvature="0"
         id="path6333"
         style="fill:#ffffff;fill-opacity:1;fill-rule:nonzero;stroke:none"
         d="m 7033.7,4774.25 c -31.06,265.47 -202.76,356.34 -222.37,371.78 -1.04,0.83 -1.74,1.35 -1.74,1.35 0,0 -82.37,68.3 -170.91,64.9 -1.73,-0.08 0.13,-2.72 0.13,-2.72 0,0 -31.81,84.16 -113.95,122.51 -82.16,38.34 -125.61,-67.09 -125.61,-67.09 0,0 -32.79,80.71 -98.37,82.07 -65.55,1.35 -56.08,-58.55 -56.08,-58.55 0,0 -108.14,85.09 -175.27,-61.21 l -148.21,-43.59 c 0,0 -348.86,-208.49 -250.16,-490.99 98.74,-282.5 406.93,-401.37 769.16,-378.41 376.48,23.84 617.1,257.38 593.38,459.95" />
      <path
         inkscape:connector-curvature="0"
         id="path6335"
         style="fill:#402c43;fill-opacity:1;fill-rule:nonzero;stroke:none"
         d="m 6116.86,4943.43 c 0,0 -52.87,-12.06 -60.14,40.32 -7.28,52.39 17.19,118.91 62.3,112.05 45.13,-6.88 65.25,-139.27 -2.16,-152.37" />
      <path
         inkscape:connector-curvature="0"
         id="path6337"
         style="fill:#402c43;fill-opacity:1;fill-rule:nonzero;stroke:none"
         d="m 6534.97,4902.58 c 0,0 -52.87,-12.07 -60.15,40.32 -7.27,52.38 17.18,118.92 62.31,112.05 45.09,-6.89 65.23,-139.27 -2.16,-152.37" />
      <path
         inkscape:connector-curvature="0"
         id="path6339"
         style="fill:#fbd0c8;fill-opacity:1;fill-rule:nonzero;stroke:none"
         d="m 6626.78,4796.67 c 0,0 -67.43,50.39 15.93,111.94 103.86,76.66 179.86,-3.98 151.32,-64.02 -18.4,-38.68 -86.5,-93.44 -167.25,-47.92" />
      <path
         inkscape:connector-curvature="0"
         id="path6341"
         style="fill:#fbd0c8;fill-opacity:1;fill-rule:nonzero;stroke:none"
         d="m 6015.53,4811.34 c 0,0 65.3,53.13 -20.53,111.2 -106.94,72.31 -179.56,-11.4 -148.55,-70.2 19.98,-37.91 90.25,-89.81 169.08,-41" />
      <path
         inkscape:connector-curvature="0"
         id="path6343"
         style="fill:#d9f1d8;fill-opacity:1;fill-rule:nonzero;stroke:none"
         d="m 6066.93,5222.77 c 0,0 -49.78,-84.82 13.83,-101.39 63.63,-16.59 99.32,45.03 99.32,45.03 0,0 -13.62,-78.55 48.84,-106.85 62.5,-28.31 111.14,91.21 111.14,91.22 0,0 34.27,-80.31 108.3,-71.26 74.04,9.04 42.26,128.68 42.26,128.68 0,0 -11.96,-101.91 -51.64,-103.27 -39.67,-1.38 -106.48,83.59 -106.48,83.59 0,0 -57.76,-97.22 -89.08,-91.9 -39.85,6.78 -41.04,116.01 -41.04,116.01 0,0 -74.27,-72.22 -108.55,-58.5 -34.22,13.69 -26.9,68.64 -26.9,68.64" />
      <path
         inkscape:connector-curvature="0"
         id="path6345"
         style="fill:#402c43;fill-opacity:1;fill-rule:nonzero;stroke:none"
         d="m 6235.95,4883.26 c 0,0 52.36,13.87 82.76,-9.67 30.41,-23.53 -30.97,-44.28 -51.42,-45.35 -20.5,-1.06 -70.54,36.43 -31.34,55.02" />
      <path
         inkscape:connector-curvature="0"
         id="path6355"
         style="fill:#402c43;fill-opacity:1;fill-rule:nonzero;stroke:none"
         d="m 6268.21,4771.82 -1.12,-0.18 1.12,0.16 0,0.02 -1.12,-0.18 1.12,0.16 c -0.04,0.32 -0.44,3.23 -0.44,8.36 0,11.01 1.8,32.22 12.79,60.42 2,5.15 -0.54,10.95 -5.69,12.95 -5.15,2.01 -10.94,-0.54 -12.95,-5.69 -11.96,-30.69 -14.15,-54.48 -14.15,-67.68 0,-7.04 0.62,-11.08 0.7,-11.56 0.89,-5.45 6.03,-9.15 11.48,-8.26 5.45,0.89 9.15,6.03 8.26,11.48" />
      <path
         inkscape:connector-curvature="0"
         id="path6375"
         style="fill:#ffffff;fill-opacity:1;fill-rule:nonzero;stroke:none"
         d="m 5921.9,4166.17 c 0,0 -23.53,61.95 -127.68,85.63 -104.18,23.67 -265.26,-62.71 -232.13,-162.89 33.14,-100.18 93.02,-7.86 93.02,-7.86 0,0 9.45,-30.93 57.16,-36.98 47.73,-6.04 52.69,50.43 52.69,50.43 0,0 26.89,-25.6 54.91,-4.47 23.02,17.35 12.86,64.96 15.69,77.32 2.83,12.37 86.34,-1.18 86.34,-1.18" />
      <path
         inkscape:connector-curvature="0"
         id="path6377"
         style="fill:#ffffff;fill-opacity:1;fill-rule:nonzero;stroke:none"
         d="m 6615.63,4166.17 c 0,0 23.54,61.95 127.69,85.63 104.18,23.67 265.25,-62.71 232.13,-162.89 -33.15,-100.18 -93.03,-7.86 -93.03,-7.86 0,0 -9.44,-30.93 -57.17,-36.98 -47.72,-6.04 -52.67,50.43 -52.67,50.43 0,0 -26.9,-25.6 -54.91,-4.47 -23.03,17.35 -12.87,64.96 -15.7,77.32 -2.83,12.37 -86.34,-1.18 -86.34,-1.18" />
    </g>
  </g>
</svg>
