<?xml version="1.0" encoding="UTF-8" standalone="no"?>
<!-- Created with Inkscape (http://www.inkscape.org/) -->

<svg
   xmlns:dc="http://purl.org/dc/elements/1.1/"
   xmlns:cc="http://creativecommons.org/ns#"
   xmlns:rdf="http://www.w3.org/1999/02/22-rdf-syntax-ns#"
   xmlns:svg="http://www.w3.org/2000/svg"
   xmlns="http://www.w3.org/2000/svg"
   xmlns:sodipodi="http://sodipodi.sourceforge.net/DTD/sodipodi-0.dtd"
   xmlns:inkscape="http://www.inkscape.org/namespaces/inkscape"
   width="8.9058771mm"
   height="13.165218mm"
   viewBox="0 0 31.556257 46.648411"
   id="svg4988"
   version="1.1"
   inkscape:version="0.91 r"
   sodipodi:docname="rabbitVegetable2.svg">
  <defs
     id="defs4990" />
  <sodipodi:namedview
     id="base"
     pagecolor="#ffffff"
     bordercolor="#666666"
     borderopacity="1.0"
     inkscape:pageopacity="0.0"
     inkscape:pageshadow="2"
     inkscape:zoom="0.82441406"
     inkscape:cx="24.457353"
     inkscape:cy="-182.03946"
     inkscape:document-units="px"
     inkscape:current-layer="layer1"
     showgrid="false"
     fit-margin-top="0"
     fit-margin-left="0"
     fit-margin-right="0"
     fit-margin-bottom="0"
     inkscape:window-width="1366"
     inkscape:window-height="744"
     inkscape:window-x="0"
     inkscape:window-y="24"
     inkscape:window-maximized="1" />
  <metadata
     id="metadata4993">
    <rdf:RDF>
      <cc:Work
         rdf:about="">
        <dc:format>image/svg+xml</dc:format>
        <dc:type
           rdf:resource="http://purl.org/dc/dcmitype/StillImage" />
        <dc:title></dc:title>
      </cc:Work>
    </rdf:RDF>
  </metadata>
  <g
     inkscape:label="Layer 1"
     inkscape:groupmode="layer"
     id="layer1"
     transform="translate(-228.03139,-303.67434)">
    <g
       transform="translate(179.09826,255.46928)"
       style="display:inline"
       id="g4893">
      <g
         id="g7407"
         transform="matrix(0.00533625,-0.02161697,-0.02161697,-0.00533625,164.91914,188.52957)"
         style="display:inline">
        <path
           d="m 4686.77,6143.06 c 0,0 -20,135.73 -200,189.06 -297.55,88.15 -466.66,-197.01 -466.66,-197.01 0,0 -79.62,163.69 -269.81,150.35 -190.2,-13.33 -468.86,-197.08 -389.53,-361.87 0,0 -207.33,79.33 -234,-132.73 0,0 -146.67,-45.52 -153.33,-238.79 -6.67,-193.27 193.33,-299.84 193.33,-299.84 0,0 24.04,-179.46 305.35,-196.44 0,0 97.95,-179.18 372.97,-184.75 275.02,-5.58 405.62,227.76 405.62,227.76 0,0 153.38,-181.11 331.39,52.78 0,0 129.87,-73.89 280.61,0 150.73,73.88 200.76,287.1 80.76,400.49 0,0 95.74,44.18 37.85,238.79 0,0 118.79,126.83 -27.88,277.38 -146.67,150.56 -266.67,74.82 -266.67,74.82"
           style="fill:#f9f8d1;fill-opacity:1;fill-rule:nonzero;stroke:none"
           id="path7409"
           inkscape:connector-curvature="0" />
      </g>
      <g
         id="g4909"
         transform="matrix(0.0036829,0,0,-0.00432899,31.432701,114.02762)">
        <path
           d="m 9453.31,11300.4 c -504.14,6 -1204.56,-21.8 -1752.05,-700.8 -547.54,-678.88 -635.1,-1839.65 197.09,-2606.12 832.19,-766.52 1511.13,-832.24 2036.71,-657.04 525.64,175.2 1336.04,635.09 1664.54,1511.11 328.4,876.07 -284.8,2430.95 -2146.29,2452.85"
           style="fill:#eb2403;fill-opacity:1;fill-rule:nonzero;stroke:none"
           id="path612"
           inkscape:connector-curvature="0" />
        <path
           d="m 11034.3,9907.93 c -30.9,97.67 -73.4,186.77 -124.3,270.47 -60.2,195.9 -144.2,385.6 -246.4,559.7 -110.6,188.5 -257,338.3 -434.5,450.1 -229.48,68.6 -487.66,108.8 -775.79,112.2 -504.14,6 -1204.56,-21.8 -1752.05,-700.8 -207.3,-257 -348.57,-583.1 -399.04,-930.69 -25.41,-320.99 48.35,-644.03 173.69,-939.1 129.15,-304.14 356.77,-585.15 595.24,-809.91 241.88,-228.08 533.1,-423.34 858.82,-504.13 417.07,-103.33 801.48,32.94 1119.43,280.62 28.5,18.49 56.5,37.46 83.8,57 298.8,213.85 553.7,507.19 731.3,828.18 221.2,399.81 309.5,884.34 169.8,1326.36"
           style="fill:#f52603;fill-opacity:1;fill-rule:nonzero;stroke:none"
           id="path614"
           inkscape:connector-curvature="0" />
        <path
           d="m 8437.76,10700.9 c 0,0 453.02,123.5 679.53,-284.5 0,0 -58.22,-211 138.86,-276.7 -131.44,-153.34 -87.61,-394.25 -21.88,-525.62 -21.9,240.92 142.82,427.52 279.44,487.52 136.61,60 282.85,154.9 330.2,337.3 113.06,116.9 485.39,160.7 857.69,-343 -153.4,394.2 -414.8,693.5 -908.23,511 -230.63,124.1 -383.89,146 -537.22,58.4 -219.03,175.2 -563.57,202.7 -818.39,35.6"
           style="fill:#d11c01;fill-opacity:1;fill-rule:nonzero;stroke:none"
           id="path616"
           inkscape:connector-curvature="0" />
        <path
           d="m 10570.1,10971.9 c 0,0 1226.4,-1007.42 657.1,-2102.4 -569.4,-1095.06 -1270.23,-1489.22 -1620.64,-1554.96 503.74,109.5 1379.74,613.23 1752.04,1379.69 372.3,766.54 219,1248.31 -43.8,1576.87 -262.8,328.5 -525.6,635.1 -744.7,700.8"
           style="fill:#d11c01;fill-opacity:1;fill-rule:nonzero;stroke:none"
           id="path618"
           inkscape:connector-curvature="0" />
        <path
           d="m 10229.1,11188.2 c 0,0 424.6,-398.8 453.8,-835.5 -174.6,276.5 -589.2,436.7 -844.14,334.8 -31.45,-12.6 -101.04,18.3 -185.18,49.3 -110.43,40.6 -245.94,81.2 -353.33,23.4 -69.26,-37.3 -141.53,19.7 -237.09,76.8 -165.41,98.7 -400.61,197.5 -810.77,-193.2 0,0 596.74,72.9 742.23,-174.5 145.56,-247.5 101.91,-247.5 116.48,-363.9 14.52,-116.46 -29.16,-436.61 145.5,-596.72 -29.1,218.28 89.78,554.22 225.28,549.72 166.99,-5.6 240.46,17.9 240.46,76.1 0,58.2 87.34,43.7 160.13,87.3 72.77,43.7 -72.79,232.9 101.85,232.9 174.68,0 596.78,-72.8 684.08,-567.66 87.3,-494.78 -145.5,-1615.46 -887.82,-1979.32 -742.3,-363.87 -1499.05,-218.31 -1964.81,291.05 -465.75,509.43 -654.92,1033.35 -436.61,1761.08 218.31,727.75 698.59,1120.65 1324.41,1237.05 625.83,116.5 1013.42,186.2 1525.53,-8.7"
           style="fill:#ff310d;fill-opacity:1;fill-rule:nonzero;stroke:none"
           id="path620"
           inkscape:connector-curvature="0" />
        <path
           d="m 7705.9,8443.72 c 212.93,-164.65 477.15,-232.1 743.57,-232.5 461.3,-0.66 960.89,187.38 1251.66,559.06 321.97,411.66 310.97,956.47 144.85,1434.32 -62.55,-23.5 -123.64,-21.4 -123.64,-70.1 0,-58.2 -66.87,-142.93 -173.68,-59.4 -106.82,83.6 -321.16,-348.14 -292.06,-566.42 -147.63,243.64 -88.51,511.22 -103.06,627.62 -5.53,44.5 -94.6,139.2 -158.92,333 -90.33,272.4 -742.23,174.5 -742.23,174.5 410.16,390.7 645.36,291.9 810.77,193.2 95.56,-57.1 167.83,-114.1 237.09,-76.8 78.29,42.2 171.51,32 259.13,7.6 -134.5,190.7 -304.79,358.2 -518.29,455.3 -19.44,8.8 -39.1,16.9 -58.74,24.4 -87.99,-15.1 -180.47,-32.2 -278.78,-50.6 -625.82,-116.4 -1106.1,-509.3 -1324.41,-1237.05 -150.2,-500.53 -107.53,-904.7 85.31,-1273.99 73.98,-87.6 150.98,-172.3 241.43,-242.14"
           style="fill:#ff3e1c;fill-opacity:1;fill-rule:nonzero;stroke:none"
           id="path622"
           inkscape:connector-curvature="0" />
        <path
           d="m 11336.7,10446.3 c -700.8,963.6 -2080.51,1029.4 -3022.23,657 C 7372.79,10731 7044.28,9526.48 7394.69,8694.23 7745.1,7862.04 8654.72,7234.76 9437.26,7197.98 c 564.14,-26.47 1242.44,357.49 1724.24,861.17 481.8,503.71 876,1423.55 175.2,2387.15 m -372.3,-2474.77 c -503.7,-503.67 -1207.19,-729 -1576.82,-678.92 -1292.15,175.2 -2190.04,1445.45 -2058.66,2409.08 127.85,937.11 941.78,1467.31 1817.8,1554.91 875.98,87.6 1927.18,-262.8 2342.48,-1155.5 415.4,-892.7 -21.1,-1625.84 -524.8,-2129.57"
           style="fill:#ae1704;fill-opacity:1;fill-rule:nonzero;stroke:none"
           id="path624"
           inkscape:connector-curvature="0" />
        <path
           d="m 8781.46,9058.32 c -127.07,79.46 -127.07,317.62 -127.07,444.7 0,35 -13.27,49.53 -33.47,49.53 -53.14,0 -154.35,-100.38 -188.86,-192.45 -6.64,-17.69 -12.66,-25.53 -17.98,-25.53 -32.89,-0.01 -38.92,299.58 2.07,422.62 15.34,46.01 -7.21,62.4 -45.88,62.4 -81.44,0 -234.4,-72.63 -255.91,-94.18 -1.84,-1.84 -3.59,-2.72 -5.22,-2.72 -26.33,-0.03 -22.84,229.72 36.94,304.51 15.43,19.3 5.57,27.3 -19.1,27.3 -76.95,0 -298.05,-78.31 -346.16,-138.48 -7.29,-9.11 -12.71,-13.21 -16.43,-13.21 -28.67,0 43.23,242.89 127.59,299.09 39.77,26.6 10.37,39.2 -43.16,39.2 -74.74,0 -196.49,-24.7 -242.75,-70.9 0,0 127.07,333.6 619.52,365.3 123.08,7.9 229.35,13.9 320.42,13.9 273.23,0 410.18,-53.6 457.84,-268.1 63.53,-285.81 15.9,-428.82 -111.16,-746.45 -127.08,-317.74 -143.01,-365.37 -111.23,-476.53 m -278.93,1480.18 c -194.71,0 -393.85,-32.6 -417.48,-57.1 -155.83,-161.4 445.22,-61.2 612.16,-155.8 165.98,-94.1 139.45,-539.94 204.71,-539.94 0.4,0 0.8,0.02 1.21,0.05 66.76,5.59 89.05,512.09 -27.88,662.29 -52.97,68.1 -211.31,90.5 -372.72,90.5"
           style="fill:#ff5d3e;fill-opacity:1;fill-rule:nonzero;stroke:none"
           id="path626"
           inkscape:connector-curvature="0" />
        <path
           d="m 10690.2,9880.41 c -6.1,0 -13.1,0.6 -21,1.67 -0.2,1.68 -0.5,3.3 -0.8,4.96 -11.9,67.27 -29.9,126.76 -52.7,179.26 20.6,-22.4 39.4,-46 55.9,-70.81 59.6,-89.3 58.7,-115.08 18.6,-115.08"
           style="fill:#f95030;fill-opacity:1;fill-rule:nonzero;stroke:none"
           id="path628"
           inkscape:connector-curvature="0" />
        <path
           d="m 9950.73,9744.01 c -7.99,76.78 -20.94,153.42 -38.21,229.25 35.7,34.44 69.02,63.84 98.08,85.14 91.2,67.1 196.8,77.3 276.5,77.3 17.3,0 33.3,-0.5 47.8,-1 14.4,-0.5 27.2,-0.9 38,-0.9 32.1,0 46.5,4.1 32.8,24.8 -40.4,60.6 -273,130.3 -357.5,130.3 -8.6,0 -15.8,-0.8 -20.9,-2.3 -46.17,-13.8 -65.54,-92.7 -149.93,-179.4 -5.15,17.3 -10.52,34.6 -16.09,51.8 75.31,62.1 98.58,105.6 111.49,170 3.12,15.6 24.69,23.3 58.83,23.3 124.1,0 414.2,-101.2 584.1,-286 22.8,-52.5 40.8,-111.99 52.7,-179.26 0.3,-1.66 0.6,-3.28 0.8,-4.96 -27.3,3.71 -64.7,13.05 -109,22.39 -57,12.03 -125.6,24.06 -198.8,24.06 -89.6,0 -186.2,-18 -277.5,-76.05 -47.2,-30.05 -91.52,-67.08 -133.17,-108.47"
           style="fill:#ff5635;fill-opacity:1;fill-rule:nonzero;stroke:none"
           id="path630"
           inkscape:connector-curvature="0" />
        <path
           d="m 9436.21,9085.43 c -6.63,0 -13.08,1.51 -19.37,4.66 -122.28,61.08 -47.69,857.71 79.39,905.4 127.08,47.61 177.54,26.21 303.17,116.31 23.83,17.1 44.28,32.6 61.88,47.2 5.57,-17.2 10.94,-34.5 16.09,-51.8 -17.47,-18 -37.71,-36.3 -61.55,-54.4 -139.14,-105.69 -300.94,-77.59 -333.94,-127.96 -105.69,-161.35 -55.67,-378.43 -44.49,-434.03 0.6,-3.01 2.25,-4.44 4.87,-4.44 38.48,0 285.79,309.19 470.26,486.89 17.27,-75.83 30.22,-152.47 38.21,-229.25 -251.31,-249.69 -405.59,-658.58 -514.52,-658.58"
           style="fill:#ff5d3e;fill-opacity:1;fill-rule:nonzero;stroke:none"
           id="path632"
           inkscape:connector-curvature="0" />
        <path
           d="m 10418.1,10705.2 c -10.1,0 -20.9,1.6 -32.3,5 -143.7,43.1 -573.15,125.2 -947.68,211 -38.95,43.7 -80.29,85.1 -124.13,123.5 19.19,0.8 38.42,1.2 57.62,1.2 57.44,0 114.87,-3.4 171.96,-9.4 92.19,-9.7 182.69,-28.9 271.13,-56.3 77.04,-23.8 161.21,-72.3 244.3,-72.3 8.4,0 16.7,0.5 24.9,1.6 18.3,2.2 27.8,17.7 20,34.7 -35.7,78.9 -131.59,117.6 -208.13,144.5 -98.05,34.5 -200.54,53.1 -303.52,64.6 -34.91,3.9 -70.27,5.6 -105.75,5.6 -71.29,0 -143.07,-6.7 -212.82,-15.7 -23.95,-3.1 -48.23,-6.6 -72.51,-10.8 -47.89,32.8 -98.36,62 -151.53,86.7 127.9,34.6 247.42,49.1 362.03,49.1 245.89,0 469.19,-66.7 704.03,-145 442.3,-147.4 433,-418.1 302.4,-418"
           style="fill:#ff5635;fill-opacity:1;fill-rule:nonzero;stroke:none"
           id="path634"
           inkscape:connector-curvature="0" />
        <path
           d="m 9438.12,10921.2 c -39.61,9.1 -78.62,18.2 -116.6,27.3 -115.38,27.7 -241.66,36 -359.22,36 -88.77,0 -172.57,-4.7 -242.92,-9.5 -70.36,-4.7 -127.28,-9.5 -162.31,-9.5 -43.21,0 -53.12,7.2 -13.84,30.6 185.13,110.2 351.86,181.3 506.41,223 53.17,-24.7 103.64,-53.9 151.53,-86.7 -72.86,-12.6 -145.66,-32.1 -209.4,-68 -21.04,-11.9 -11.33,-44.2 12.08,-44.5 3.55,-0.1 7.11,-0.1 10.67,-0.1 86.3,0 173.03,16.3 259.16,22.6 13.43,1 26.86,1.7 40.31,2.3 43.84,-38.4 85.18,-79.8 124.13,-123.5"
           style="fill:#ff5d3e;fill-opacity:1;fill-rule:nonzero;stroke:none"
           id="path636"
           inkscape:connector-curvature="0" />
        <path
           d="m 10059,10907.9 c -83.09,0 -167.26,48.5 -244.3,72.3 -88.44,27.4 -178.94,46.6 -271.13,56.3 -57.09,6 -114.52,9.4 -171.96,9.4 -19.2,0 -38.43,-0.4 -57.62,-1.2 -35.91,31.4 -73.49,60.8 -112.82,87.7 24.28,4.2 48.56,7.7 72.51,10.8 69.75,9 141.53,15.7 212.82,15.7 35.48,0 70.84,-1.7 105.75,-5.6 102.98,-11.5 205.47,-30.1 303.52,-64.6 76.54,-26.9 172.43,-65.6 208.13,-144.5 7.8,-17 -1.7,-32.5 -20,-34.7 -8.2,-1.1 -16.5,-1.6 -24.9,-1.6"
           style="fill:#ff8d78;fill-opacity:1;fill-rule:nonzero;stroke:none"
           id="path638"
           inkscape:connector-curvature="0" />
        <path
           d="m 9014.52,11019.8 c -3.56,0 -7.12,0 -10.67,0.1 -23.41,0.3 -33.12,32.6 -12.08,44.5 63.74,35.9 136.54,55.4 209.4,68 39.33,-26.9 76.91,-56.3 112.82,-87.7 -13.45,-0.6 -26.88,-1.3 -40.31,-2.3 -86.13,-6.3 -172.86,-22.6 -259.16,-22.6"
           style="fill:#ff8f7b;fill-opacity:1;fill-rule:nonzero;stroke:none"
           id="path640"
           inkscape:connector-curvature="0" />
        <path
           d="m 9912.52,9973.26 c -10.24,45.04 -22,89.64 -35.15,133.94 84.39,86.7 103.76,165.6 149.93,179.4 5.1,1.5 12.3,2.3 20.9,2.3 84.5,0 317.1,-69.7 357.5,-130.3 13.7,-20.7 -0.7,-24.8 -32.8,-24.8 -10.8,0 -23.6,0.4 -38,0.9 -14.5,0.5 -30.5,1 -47.8,1 -79.7,0 -185.3,-10.2 -276.5,-77.3 -29.06,-21.3 -62.38,-50.7 -98.08,-85.14"
           style="fill:#ff8d78;fill-opacity:1;fill-rule:nonzero;stroke:none"
           id="path642"
           inkscape:connector-curvature="0" />
        <path
           d="m 9442.26,9486.37 c -2.62,0 -4.27,1.43 -4.87,4.44 -11.18,55.6 -61.2,272.68 44.49,434.03 33,50.37 194.8,22.27 333.94,127.96 23.84,18.1 44.08,36.4 61.55,54.4 13.15,-44.3 24.91,-88.9 35.15,-133.94 -184.47,-177.7 -431.78,-486.89 -470.26,-486.89"
           style="fill:#ff8f7b;fill-opacity:1;fill-rule:nonzero;stroke:none"
           id="path644"
           inkscape:connector-curvature="0" />
        <path
           d="m 8901.92,9785.66 c -65.26,0 -38.73,445.84 -204.71,539.94 -166.94,94.6 -767.99,-5.6 -612.16,155.8 23.63,24.5 222.77,57.1 417.48,57.1 161.41,0 319.75,-22.4 372.72,-90.5 116.93,-150.2 94.64,-656.7 27.88,-662.29 -0.41,-0.03 -0.81,-0.05 -1.21,-0.05"
           style="fill:#ff8f7b;fill-opacity:1;fill-rule:nonzero;stroke:none"
           id="path646"
           inkscape:connector-curvature="0" />
        <path
           d="m 9079.9,10310.7 c 0,0 169.67,-191.4 337.04,-127.6 97.16,31.9 340.3,193.4 400.65,272.3 22.12,85.2 66.85,129.9 220.11,219.3 153.2,89.4 363.9,185.2 383.1,306.4 19.2,121.4 19.2,255.5 -6.4,319.4 -25.5,63.8 -87.8,119.4 -171.6,142.7 88.6,-91.7 139.7,-193.8 69.5,-264.1 -70.3,-70.2 -249.1,-210.7 -408.72,-255.4 51.09,102.2 76.6,236.3 63.88,370.4 -12.79,134 -63.88,312.9 -70.23,402.2 -44.74,-89.3 -395.93,-574.6 -395.93,-727.9 -6.41,172.4 12.8,434.2 12.8,434.2 -76.6,0 -131.76,-35.8 -131.76,-35.8 -47.01,118.8 -130.05,291.2 -142.84,457.3 -19.14,-159.7 -74.59,-427.2 -101.15,-545.6 -26.53,-118.5 -128.77,-380.3 18.14,-642.1 -89.38,114.9 -236.23,351.2 -268.18,625.7 -19.2,-166 -46.17,-391.8 44,-626.9 -95.08,45.9 -344.1,231.1 -286.64,524.8 -63.88,-115 -159.63,-217.1 -127.68,-300.1 31.88,-83 306.45,-344.8 561.91,-549.2"
           style="fill:#425e07;fill-opacity:1;fill-rule:nonzero;stroke:none"
           id="path648"
           inkscape:connector-curvature="0" />
        <path
           d="m 9156.49,10636.4 c -54.1,139.5 -99.04,326.8 -16.69,543.9 82.41,217.2 97.36,329.5 142.26,307.1 44.95,-22.5 141.26,-96 141.26,-96 -88.78,-16.4 -103.8,-128.7 -111.29,-248.5 -7.47,-119.8 -63.92,-541.2 -155.54,-506.5"
           style="fill:#587d09;fill-opacity:1;fill-rule:nonzero;stroke:none"
           id="path650"
           inkscape:connector-curvature="0" />
        <path
           d="m 8932.31,10635.2 42.78,-158.8 c -142.32,89.9 -374.47,292.1 -404.45,374.4 -29.93,82.4 -55.4,119.5 65.94,262 1.5,-97.2 -43.45,-254.5 295.73,-477.6"
           style="fill:#587d09;fill-opacity:1;fill-rule:nonzero;stroke:none"
           id="path652"
           inkscape:connector-curvature="0" />
        <path
           d="m 8907.64,10985.6 c -27.92,69.9 29.93,-352 149.73,-434.3 119.82,-82.4 157.36,-59.9 82.43,15 -74.89,74.8 -187.21,307 -232.16,419.3"
           style="fill:#587d09;fill-opacity:1;fill-rule:nonzero;stroke:none"
           id="path654"
           inkscape:connector-curvature="0" />
        <path
           d="m 9836.25,11195.3 c 0,0 -209.71,-329.5 -239.63,-449.3 -29.98,-119.8 7.48,-254.6 74.87,-172.3 67.4,82.4 82.36,-59.9 104.85,15 22.5,74.9 59.91,426.9 59.91,606.6"
           style="fill:#587d09;fill-opacity:1;fill-rule:nonzero;stroke:none"
           id="path656"
           inkscape:connector-curvature="0" />
        <path
           d="m 9956.06,10895.8 c -55.94,-31.1 -119.81,-247.2 -22.43,-224.7 97.37,22.5 329.47,134.8 404.37,239.6 74.9,104.9 74.9,314.6 30,307.1 -45,-7.5 -209.7,-209.7 -411.94,-322"
           style="fill:#587d09;fill-opacity:1;fill-rule:nonzero;stroke:none"
           id="path658"
           inkscape:connector-curvature="0" />
        <path
           d="m 9559.21,10933.2 c 30.83,-36 89.83,15 127.3,82.4 37.42,67.4 142.26,232.1 157.23,337 29.99,-60 29.99,-202.2 29.99,-247.2 44.94,52.5 82.33,284.6 37.44,411.9 -44.94,127.3 0,209.7 -67.43,74.9 -67.4,-134.7 -179.74,-262.1 -239.64,-396.9 -59.92,-134.7 -89.9,-209.7 -44.89,-262.1"
           style="fill:#587d09;fill-opacity:1;fill-rule:nonzero;stroke:none"
           id="path660"
           inkscape:connector-curvature="0" />
        <path
           d="m 9491.27,11365.2 c 0,0 -104.35,-244.7 -89.39,-529.3 15,-284.6 -37.42,-344.5 -89.85,-269.6 -52.42,74.8 -12.56,667.3 40.36,800.5 27.03,68.1 145.86,10.9 138.88,-1.6"
           style="fill:#587d09;fill-opacity:1;fill-rule:nonzero;stroke:none"
           id="path662"
           inkscape:connector-curvature="0" />
        <path
           d="m 9424.88,11363.6 c -3.12,10.8 -17.44,15.1 -25.47,6.7 -35.18,-36.9 -37.07,-86.7 -47.02,-135.7 -11.03,-54.3 -19.07,-108.8 -25.55,-163.8 -15.3,-129.9 -22.23,-261.8 -8.94,-392 1.89,-18.7 26.97,-18.6 28.97,0 12.34,113.3 16.82,227.2 30.45,340.4 8.03,66.9 19.41,133.6 31.69,199.7 9.05,49.2 30.05,95.9 15.87,144.7"
           style="fill:#90b565;fill-opacity:1;fill-rule:nonzero;stroke:none"
           id="path664"
           inkscape:connector-curvature="0" />
        <path
           d="m 9284.51,11518.1 c -2.67,9.2 -14.79,10.3 -19.81,2.6 -31.95,-49.3 -34.52,-114.3 -47.42,-170.8 -15.17,-66.5 -32.32,-132.4 -45.66,-199.2 -23.91,-119.8 -29.65,-238.4 -8.1,-358.8 2.74,-15.3 28.26,-11.8 27.03,3.6 -10.34,131.7 4.62,258.1 36,386 14.65,59.4 29.82,118.8 43.51,178.5 11.88,52 29.24,105.6 14.45,158.1"
           style="fill:#90b565;fill-opacity:1;fill-rule:nonzero;stroke:none"
           id="path666"
           inkscape:connector-curvature="0" />
        <path
           d="m 8834.85,10605.7 c -44.13,77.1 -117.61,129.9 -168.8,201.9 -54.6,76.8 -59.13,169.5 -48.97,260.2 0.57,5.2 -6.93,5.3 -8.53,1.2 -73.09,-185.4 48.62,-382.7 213.38,-476.2 8.21,-4.6 17.59,4.7 12.92,12.9"
           style="fill:#90b565;fill-opacity:1;fill-rule:nonzero;stroke:none"
           id="path668"
           inkscape:connector-curvature="0" />
        <path
           d="m 9127.18,10590.3 c -53.73,59.6 -99.95,118.2 -135.07,190.9 -33.04,68.5 -50.64,143 -81.34,212.5 -3.7,8.2 -14.29,1.7 -13.3,-5.6 19.88,-146 71.14,-345.8 214.75,-417.2 12.62,-6.2 24.43,8.8 14.96,19.4"
           style="fill:#90b565;fill-opacity:1;fill-rule:nonzero;stroke:none"
           id="path670"
           inkscape:connector-curvature="0" />
        <path
           d="m 10348.7,11244.2 c -1.4,4.6 -8.7,5.1 -9.8,0 -23.1,-118.4 -39,-205.4 -153.3,-266.5 -70.9,-38 -208.1,-55 -243.28,-136 -4.61,-10.6 0.91,-20.6 12.52,-21.8 52.86,-5.5 105.46,30.7 151.06,53.6 50.6,25.4 102.8,50.1 147.4,85.4 87.1,68.8 127.4,177.7 95.4,285.3"
           style="fill:#90b565;fill-opacity:1;fill-rule:nonzero;stroke:none"
           id="path672"
           inkscape:connector-curvature="0" />
        <path
           d="m 9810.57,11578.3 c -50.58,-102.2 -99.94,-199.7 -160.46,-296.7 -54.84,-88 -130.15,-202.4 -116.07,-311.1 1.43,-11.1 16.45,-18.1 22.93,-6.1 27.81,50.6 41.11,107.8 64.76,160.5 23.4,52.2 50.38,102.4 78.12,152.4 50.88,91.4 116.41,190 128.19,296.2 1.05,9.4 -13.5,12.9 -17.47,4.8"
           style="fill:#90b565;fill-opacity:1;fill-rule:nonzero;stroke:none"
           id="path674"
           inkscape:connector-curvature="0" />
        <path
           d="m 9818.06,11146 c -46.36,-69.7 -80.52,-144.9 -114.13,-221.3 -33.83,-76.9 -67.12,-161.1 -68.29,-245.9 -0.11,-7.6 11.33,-11.4 14.79,-4 35.85,75.1 57.8,157.8 86.11,236.1 28.36,78.4 63.86,153 82.85,234.5 l -1.33,0.6"
           style="fill:#90b565;fill-opacity:1;fill-rule:nonzero;stroke:none"
           id="path676"
           inkscape:connector-curvature="0" />
        <path
           d="m 9390.55,10194.9 c -106.54,-8.2 -188.5,41 -269.85,103.2 0,0 -107.15,159.1 -172.69,339.3 -65.6,180.3 -65.6,319.6 -56.78,541.4 41.65,-229 179.67,-541.4 335.38,-647.9 155.73,-106.5 172.14,-172.1 163.94,-336 z m -131.17,352.4 c -163.87,139.3 -262.18,360.6 -311.43,540.9 -49.12,180.3 -49.12,303.2 -114.68,393.4 -65.55,90.1 -147.5,122.9 -98.38,213 -49.12,-73.7 -24.57,-155.7 49.18,-237.6 150.59,-167.3 32.8,-401.6 90.19,-696.6 57.33,-295 221.25,-483.5 221.25,-483.5 139.31,-114.8 286.83,-164 327.81,-106.6 16.41,123 0,237.7 -163.94,377"
           style="fill:#183d00;fill-opacity:1;fill-rule:nonzero;stroke:none"
           id="path678"
           inkscape:connector-curvature="0" />
        <path
           d="m 9095.51,10276.9 c 0,0 -104.24,85.9 -355.3,292.9 -251.15,206.9 -275.78,297.1 -218.38,403.7 57.39,106.5 223.67,292.8 87.27,507 93.09,-56.3 117.64,-162.9 76.67,-285.7 -40.99,-123 -57.4,-213.1 32.76,-336.1 90.17,-122.9 173.48,-201.2 213.78,-223.5 7.49,-30.5 7.49,-30.5 7.49,-30.5 0,0 -188.5,81.9 -254.03,213 -65.55,131.2 -65.55,229.5 -49.19,295.1 -81.96,-131.1 -139.31,-204.9 -73.78,-303.3 65.57,-98.3 302.3,-303.1 474.82,-426.1 33.28,-57.3 57.89,-106.5 57.89,-106.5"
           style="fill:#183d00;fill-opacity:1;fill-rule:nonzero;stroke:none"
           id="path680"
           inkscape:connector-curvature="0" />
        <path
           d="m 9792.08,10448.9 c -49.19,-49.1 -221.27,-196.6 -321.71,-224.2 -34.88,136.2 26.7,363.6 92.3,535.7 65.54,172.1 229.41,401.5 286.8,524.4 24.57,-319.5 -40.97,-606.4 -57.39,-835.9 z m 32.77,1024.4 c -65.54,41 -131.08,106.6 -114.66,188.6 -57.4,-164 114.66,-188.6 106.52,-336.1 -8.21,-147.5 -163.92,-295 -300.78,-596.2 -136.85,-301.1 -110.72,-562 -92.61,-559.3 163.91,24.6 286.87,155.8 409.74,270.4 -8.21,73.9 40.98,418 40.98,622.9 0,204.9 16.37,368.8 -49.19,409.7"
           style="fill:#183d00;fill-opacity:1;fill-rule:nonzero;stroke:none"
           id="path682"
           inkscape:connector-curvature="0" />
        <path
           d="m 9259.38,10547.3 c 0,0 8.21,508.1 73.81,811.3 0,0 114.69,106.6 196.64,73.8 0,-73.8 -24.55,-540.9 8.21,-696.6 -16.34,-41 -32.76,-98.4 -32.76,-98.4 0,0 -44.44,373.7 -14.01,727.8 -59.81,18 -116.19,10.1 -124.84,-26.9 -8.67,-37.1 -116.38,-584.2 -42.05,-855.6 -40.37,40 -65,64.6 -65,64.6"
           style="fill:#183d00;fill-opacity:1;fill-rule:nonzero;stroke:none"
           id="path684"
           inkscape:connector-curvature="0" />
        <path
           d="m 9119.02,10690.8 c -80.85,208.9 -66.33,308.2 0.16,606.8 66.52,298.7 140.2,520 58.25,692.1 73.8,-106.6 81.95,-262.3 114.79,-368.8 32.76,-106.6 98.33,-188.5 131.1,-229.5 -16.42,8.2 -40.98,-24.6 -40.98,-24.6 0,0 -143.79,216.7 -137.47,337.8 -34.61,-173.9 -75.59,-329.6 -108.43,-501.7 -32.72,-172.1 -73.7,-368.8 65.61,-606.4 -57.33,49.2 -83.03,94.3 -83.03,94.3"
           style="fill:#183d00;fill-opacity:1;fill-rule:nonzero;stroke:none"
           id="path686"
           inkscape:connector-curvature="0" />
        <path
           d="m 9515.21,11008.7 c 14.62,128.6 72.02,276.1 203.13,431.9 131.13,155.7 196.7,295 139.34,475.3 57.36,-114.7 73.71,-377 106.55,-516.3 32.71,-139.3 44.47,-356 -26.93,-460.7 64.2,27.3 197.5,93.8 287.8,170.4 51.2,43.4 88.5,90.1 91.5,134.6 3.6,54 -3.9,90.6 -20.3,119.5 -21.1,37 -56.7,61.4 -102.6,93.6 -82,57.3 -73.8,114.7 -16.4,155.7 -32.8,-49.2 -27.4,-84 84.7,-156.7 111.9,-72.8 210.3,-113.8 202.1,-326.8 -8.2,-213.1 -90.2,-303.3 -204.9,-368.8 -114.7,-65.6 -385.16,-172.1 -442.49,-311.5 0,57.5 -21.1,58.3 34.5,123.4 55.62,65.1 244.09,147.1 358.89,220.9 114.7,73.7 204.8,163.8 204.8,327.7 0,163.9 -41,237.7 -98.3,270.5 41,-106.6 90.1,-188.5 -32.8,-286.8 -122.9,-98.4 -409.76,-221.3 -417.94,-229.5 8.18,24.6 -8.18,65.6 -8.18,65.6 0,0 76.33,25 90.13,245.8 8.14,131.1 -49.15,377 -57.4,442.6 -40.94,-82 -131.1,-213.1 -196.64,-303.3 -65.56,-90.1 -180.35,-286.8 -172.07,-467.1 -24.63,32.8 -6.49,150 -6.49,150"
           style="fill:#183d00;fill-opacity:1;fill-rule:nonzero;stroke:none"
           id="path688"
           inkscape:connector-curvature="0" />
      </g>
    </g>
  </g>
</svg>
