<?xml version="1.0" encoding="UTF-8" standalone="no"?>
<!-- Created with Inkscape (http://www.inkscape.org/) -->

<svg
   xmlns:dc="http://purl.org/dc/elements/1.1/"
   xmlns:cc="http://creativecommons.org/ns#"
   xmlns:rdf="http://www.w3.org/1999/02/22-rdf-syntax-ns#"
   xmlns:svg="http://www.w3.org/2000/svg"
   xmlns="http://www.w3.org/2000/svg"
   xmlns:sodipodi="http://sodipodi.sourceforge.net/DTD/sodipodi-0.dtd"
   xmlns:inkscape="http://www.inkscape.org/namespaces/inkscape"
   width="18.242903mm"
   height="30.967096mm"
   viewBox="0 0 64.640206 109.72593"
   id="svg5922"
   version="1.1"
   inkscape:version="0.91 r"
   sodipodi:docname="rabbitNumber.svg">
  <defs
     id="defs5924">
    <clipPath
       clipPathUnits="userSpaceOnUse"
       id="clipPath416">
      <path
         d="m 1026.76,2546.49 0,0 0,0 0,0 m 0.12,0 c 274.01,0.03 521.24,125.47 589.25,341.39 -68.02,-215.93 -315.22,-341.38 -589.25,-341.39 m -16.67,0.15 c -0.38,0.01 -0.76,0.01 -1.14,0.02 l 0,0 0,0 c 0.38,-0.01 0.76,-0.01 1.14,-0.02 m -2.11,0.04 c -0.08,0 -0.17,0 -0.24,0.01 0.09,-0.01 0.15,-0.01 0.24,-0.01 m -1,0.02 c -0.07,0 -0.16,0 -0.24,0.01 0.07,-0.01 0.17,-0.01 0.24,-0.01 m -1.08,0.02 c -0.03,0 -0.07,0.01 -0.1,0.01 0.03,0 0.07,-0.01 0.1,-0.01 m 610.26,341.66 c 0.16,0.49 0.31,0.99 0.47,1.48 -0.16,-0.49 -0.31,-0.99 -0.47,-1.48 m 0.55,1.75 c 0.25,0.81 0.49,1.61 0.74,2.43 0.06,0.19 0.12,0.39 0.17,0.58 -0.06,-0.2 -0.11,-0.39 -0.17,-0.58 -0.25,-0.82 -0.49,-1.62 -0.74,-2.43 m 0.95,3.15 c 0.06,0.18 0.12,0.38 0.17,0.56 -0.06,-0.19 -0.11,-0.37 -0.17,-0.56 m 0.21,0.68 c 0.04,0.15 0.08,0.3 0.13,0.45 -0.05,-0.15 -0.09,-0.3 -0.13,-0.45 m 0.19,0.65 c 0.04,0.17 0.09,0.34 0.14,0.5 -0.05,-0.16 -0.1,-0.33 -0.14,-0.5 m 0.21,0.74 c 0.03,0.11 0.06,0.19 0.09,0.3 -0.03,-0.1 -0.06,-0.2 -0.09,-0.3 m 0.17,0.58 c 0.03,0.1 0.06,0.2 0.08,0.29 -0.03,-0.1 -0.05,-0.19 -0.08,-0.29 m 0.23,0.8 c 0.01,0.04 0.02,0.09 0.03,0.14 -0.01,-0.05 -0.02,-0.1 -0.03,-0.14"
         id="path418"
         inkscape:connector-curvature="0" />
    </clipPath>
  </defs>
  <sodipodi:namedview
     id="base"
     pagecolor="#ffffff"
     bordercolor="#666666"
     borderopacity="1.0"
     inkscape:pageopacity="0.0"
     inkscape:pageshadow="2"
     inkscape:zoom="0.82441406"
     inkscape:cx="-246.34191"
     inkscape:cy="218.88385"
     inkscape:document-units="px"
     inkscape:current-layer="layer1"
     showgrid="false"
     fit-margin-top="0"
     fit-margin-left="0"
     fit-margin-right="0"
     fit-margin-bottom="0"
     inkscape:window-width="1366"
     inkscape:window-height="744"
     inkscape:window-x="0"
     inkscape:window-y="24"
     inkscape:window-maximized="1" />
  <metadata
     id="metadata5927">
    <rdf:RDF>
      <cc:Work
         rdf:about="">
        <dc:format>image/svg+xml</dc:format>
        <dc:type
           rdf:resource="http://purl.org/dc/dcmitype/StillImage" />
        <dc:title></dc:title>
      </cc:Work>
    </rdf:RDF>
  </metadata>
  <g
     inkscape:label="Layer 1"
     inkscape:groupmode="layer"
     id="layer1"
     transform="translate(-498.83067,-641.52011)">
    <g
       style="display:inline"
       transform="matrix(0.03049825,0,0,-0.03049825,484.24801,772.15808)"
       id="g4730">
      <path
         inkscape:connector-curvature="0"
         id="path354"
         style="fill:#5aa525;fill-opacity:1;fill-rule:nonzero;stroke:none"
         d="m 2597.62,872.582 c 0,-103.223 -473.2,-186.902 -1056.93,-186.902 -583.721,0 -1056.92,83.679 -1056.92,186.902 0,103.219 473.199,186.888 1056.92,186.888 583.73,0 1056.93,-83.669 1056.93,-186.888" />
      <path
         inkscape:connector-curvature="0"
         id="path390"
         style="fill:#ffffff;fill-opacity:1;fill-rule:nonzero;stroke:none"
         d="m 1405.95,3266.59 c 0,0 278.9,-150.53 211.62,-374.03 -67.3,-223.49 -325.47,-351.46 -608.5,-345.9 -294.16,5.74 -463.882,100.38 -458.722,315.03 5.16,214.73 164.73,346.37 164.73,346.37 0,0 -309.824,661.15 -220.887,899.58 88.938,238.44 238.641,-85.44 294.528,-358.27 58.152,-283.9 57.293,-487.06 57.293,-487.06 0,0 251.368,128.15 442.958,33.21 0,0 -190.69,854.35 -40.84,970.72 149.86,116.36 250.61,-372.51 157.82,-999.65" />
      <path
         inkscape:connector-curvature="0"
         id="path392"
         style="fill:#fbd0c8;fill-opacity:1;fill-rule:nonzero;stroke:none"
         d="m 798.809,3302.93 c -1.746,21.15 -32.032,228.79 -70.532,412.87 -41.699,199.31 -134.554,430.33 -167.109,365.45 -78.391,-156.31 121.754,-608.61 147.395,-696.93 53.601,-184.61 99.957,-198.18 90.246,-81.39" />
      <path
         inkscape:connector-curvature="0"
         id="path394"
         style="fill:#fbd0c8;fill-opacity:1;fill-rule:nonzero;stroke:none"
         d="m 1374.3,3362.51 c 2.5,21.04 14.35,230.57 13.42,418.63 -1.01,203.63 -45.81,448.56 -90.67,391.48 -108.07,-137.49 -2.39,-620.66 5.08,-712.32 15.62,-191.59 58.32,-214.17 72.17,-97.79" />
      <path
         inkscape:connector-curvature="0"
         id="path396"
         style="fill:#402c43;fill-opacity:1;fill-rule:nonzero;stroke:none"
         d="m 900.883,2872.15 c 0,0 41.578,-7.59 45.469,33.48 3.886,41.05 -17.426,92.05 -52.348,85.16 -34.926,-6.9 -46.09,-110.74 6.879,-118.64" />
      <path
         inkscape:connector-curvature="0"
         id="path398"
         style="fill:#402c43;fill-opacity:1;fill-rule:nonzero;stroke:none"
         d="m 1287.87,2927.11 c 0,0 41.58,-7.59 45.48,33.47 3.88,41.09 -17.44,92.08 -52.36,85.19 -34.92,-6.91 -46.09,-110.74 6.88,-118.66" />
      <path
         inkscape:connector-curvature="0"
         id="path400"
         style="fill:#402c43;fill-opacity:1;fill-rule:nonzero;stroke:none"
         d="m 1166.99,2868.03 c 0,0 -41.49,7.93 -63.85,-12.03 -22.35,-19.98 26.51,-32.78 42.5,-32.49 15.99,0.29 52.88,32.2 21.35,44.52" />
      <path
         inkscape:connector-curvature="0"
         id="path402"
         style="fill:#402c43;fill-opacity:1;fill-rule:nonzero;stroke:none"
         d="m 1273.85,2860.26 -30.95,-0.14 c -4.17,-0.02 -7.86,-2.59 -9.32,-6.5 -1.46,-3.9 -0.37,-8.26 2.76,-11.01 l 0.01,-0.01 c 0.48,-0.43 4.18,-3.98 7.57,-9.65 3.42,-5.69 6.49,-13.31 6.48,-22.34 0,-5.29 -1.02,-11.15 -3.83,-17.76 -3.28,-7.69 -9.58,-13.99 -17.9,-18.47 -8.28,-4.47 -18.45,-6.93 -28.3,-6.91 -7.71,-0.01 -15.19,1.48 -21.44,4.33 -6.27,2.87 -11.27,6.96 -14.73,12.41 -2.18,3.44 -6.24,5.22 -10.25,4.48 -4.01,-0.73 -7.17,-3.84 -7.99,-7.83 l 2.93,-0.6 -2.92,0.66 -0.01,-0.06 2.93,-0.6 -2.92,0.66 c -0.06,-0.4 -2.6,-10.81 -11.44,-20.56 -4.43,-4.9 -10.39,-9.71 -18.67,-13.39 -8.28,-3.67 -18.97,-6.24 -33.01,-6.24 -1.11,0 -2.25,0.01 -3.41,0.05 l 0,0 c -13.82,0.43 -23.44,3.97 -30.69,8.87 -10.79,7.31 -16.74,18.43 -19.97,29.02 -3.23,10.52 -3.52,20.11 -3.51,22.63 l 0,0.55 0.01,0.1 -2.6,0.07 2.6,-0.1 0,0.03 -2.6,0.07 2.6,-0.1 c 0.11,3.11 -1.22,6.07 -3.61,8.06 -2.38,1.98 -5.54,2.74 -8.57,2.06 l -25.397,-5.68 c -5.39,-1.21 -8.777,-6.55 -7.574,-11.94 1.207,-5.39 6.555,-8.78 11.941,-7.58 l 25.4,5.69 -2.19,9.76 -9.99,0.36 -0.02,-1.35 c 0.05,-5.07 0.49,-23.52 9.87,-42.25 4.71,-9.34 11.83,-18.79 22.37,-25.95 10.52,-7.17 24.31,-11.84 41.35,-12.31 l 0.01,0 c 1.34,-0.04 2.67,-0.06 3.98,-0.06 17.03,-0.01 30.99,3.27 42.18,8.44 16.82,7.73 27.06,19.56 32.87,29.33 5.84,9.8 7.49,17.59 7.65,18.35 l -9.79,2.01 -8.45,-5.35 c 5.77,-9.12 14.1,-15.72 23.34,-19.91 9.27,-4.21 19.48,-6.13 29.72,-6.13 13.08,0.01 26.26,3.12 37.77,9.29 11.48,6.16 21.41,15.6 26.82,28.24 3.85,8.99 5.45,17.68 5.45,25.61 -0.01,14.54 -5.24,26.24 -10.3,34.19 -5.09,7.97 -10.08,12.39 -10.57,12.83 l -6.6,-7.51 0.05,-10 30.96,0.14 c 5.52,0.03 9.98,4.53 9.95,10.05 -0.02,5.52 -4.52,9.98 -10.05,9.95" />
      <path
         inkscape:connector-curvature="0"
         id="path404"
         style="fill:#402c43;fill-opacity:1;fill-rule:nonzero;stroke:none"
         d="m 1165.72,2777.95 c 0.02,0.28 0.12,1.53 0.12,3.66 0.01,8.25 -1.56,29.73 -15.12,58.39 -2.36,5 -8.32,7.14 -13.31,4.77 -5,-2.36 -7.13,-8.32 -4.77,-13.31 12.14,-25.72 13.2,-44.08 13.2,-49.85 l -0.03,-1.58 -0.02,-0.3 0,-0.02 5.85,-0.48 -5.84,0.54 -0.01,-0.06 5.85,-0.48 -5.84,0.54 c -0.5,-5.5 3.55,-10.37 9.05,-10.87 5.5,-0.5 10.36,3.55 10.87,9.05 l 0,0" />
      <path
         inkscape:connector-curvature="0"
         id="path406"
         style="fill:#fbd0c8;fill-opacity:1;fill-rule:nonzero;stroke:none"
         d="m 819.703,2745.08 c 0,0 57.016,32.53 -1.617,88.13 -73.035,69.3 -139.602,14.17 -123.25,-35.03 10.523,-31.7 57.988,-80.62 124.867,-53.1" />
      <path
         inkscape:connector-curvature="0"
         id="path408"
         style="fill:#fbd0c8;fill-opacity:1;fill-rule:nonzero;stroke:none"
         d="m 1407.78,2865.06 c 0,0 -63.83,15.37 -23,85.12 50.85,86.9 130.13,52.47 128.13,0.66 -1.28,-33.38 -33.24,-93.56 -105.13,-85.78" />
      <path
         inkscape:connector-curvature="0"
         id="path410"
         style="fill:#ffffff;fill-opacity:1;fill-rule:nonzero;stroke:none"
         d="m 944.543,3196.16 c -14.199,-2.32 -106.715,143.18 -34.531,211.75 72.179,68.6 72.179,-54.85 72.179,-54.85 0,0 17.383,143.99 102.349,132.94 84.95,-11.06 12.88,-140.29 12.88,-140.29 0,0 68.62,72.81 113.45,44.64 44.84,-28.17 -27.4,-155.23 -266.327,-194.19" />
      <g
         id="g412">
        <g
           clip-path="url(#clipPath416)"
           id="g414">
          <path
             inkscape:connector-curvature="0"
             id="path420"
             style="fill:#46a688;fill-opacity:1;fill-rule:nonzero;stroke:none"
             d="m 1005.92,2546.49 612.898,0 0,350.383 -612.898,0 0,-350.383 z" />
        </g>
      </g>
      <path
         inkscape:connector-curvature="0"
         id="path422"
         style="fill:#e9e8e8;fill-opacity:1;fill-rule:nonzero;stroke:none"
         d="m 1026.76,2546.49 0,0 c -5.49,0 -11.04,0.05 -16.55,0.15 -0.38,0.01 -0.76,0.01 -1.14,0.02 l 0,0 c -0.32,0.01 -0.65,0.01 -0.97,0.02 -0.09,0 -0.15,0 -0.24,0.01 -0.26,0 -0.5,0.01 -0.76,0.01 -0.07,0 -0.17,0 -0.24,0.01 -0.28,0 -0.56,0.01 -0.84,0.01 -0.03,0 -0.07,0.01 -0.1,0.01 -175.94,3.82 -306.932,39.75 -382.279,114.36 39.261,37.83 62.777,76.79 84.285,113.39 15.019,-19.46 40.414,-37.49 73.066,-37.5 11.981,0 24.93,2.43 38.711,8.1 0,0 57.016,32.53 -1.617,88.13 -16.977,16.11 -33.613,25.5 -48.93,29.8 18.035,18.81 40.071,35.46 69.571,49.08 8.449,4.23 17.082,8.08 25.918,11.61 1.503,-24.9 12.347,-47.99 36.238,-51.55 0,0 3.027,-0.55 7.527,-0.55 12.168,0 35.102,4.04 37.942,34.03 1.253,13.25 -0.118,27.54 -3.727,40.58 96.615,19.15 206.315,14.47 311.075,17.79 4.33,-18.74 15.08,-34.04 34.17,-36.89 0,0 3.03,-0.55 7.52,-0.55 12.18,0 35.11,4.04 37.96,34.02 0.25,2.68 0.4,5.41 0.44,8.16 25.13,2.39 49.64,5.79 73.3,10.68 -7.78,-7.63 -15.31,-17.29 -22.31,-29.24 -40.83,-69.75 23,-85.12 23,-85.12 4.3,-0.47 8.45,-0.69 12.46,-0.69 63.14,0 91.47,55.09 92.67,86.47 0.88,22.69 -13.84,42.05 -34.94,49.34 44.91,17.84 84.75,44.41 117,84.18 29.12,-53.42 43.84,-116.71 23.85,-187.49 -0.01,-0.05 -0.02,-0.1 -0.03,-0.14 -0.05,-0.17 -0.1,-0.34 -0.15,-0.51 -0.02,-0.09 -0.05,-0.19 -0.08,-0.29 -0.03,-0.09 -0.05,-0.19 -0.08,-0.28 -0.03,-0.11 -0.06,-0.19 -0.09,-0.3 -0.02,-0.08 -0.04,-0.16 -0.07,-0.24 -0.05,-0.16 -0.1,-0.33 -0.14,-0.5 -0.02,-0.07 -0.04,-0.13 -0.06,-0.2 -0.05,-0.15 -0.09,-0.3 -0.13,-0.45 -0.02,-0.04 -0.03,-0.08 -0.04,-0.12 -0.05,-0.18 -0.11,-0.38 -0.17,-0.56 -0.01,-0.04 -0.02,-0.1 -0.04,-0.14 -0.05,-0.19 -0.11,-0.39 -0.17,-0.58 -0.25,-0.82 -0.49,-1.62 -0.74,-2.43 -0.03,-0.09 -0.06,-0.19 -0.08,-0.27 -0.16,-0.49 -0.31,-0.99 -0.47,-1.48 -0.05,-0.18 -0.1,-0.32 -0.15,-0.5 -68.01,-215.92 -315.24,-341.36 -589.25,-341.39 -0.04,0 -0.08,0 -0.12,0 m -20.74,243.48 c 1.02,-8.24 3.42,-19.53 9.12,-30.92 4.71,-9.34 11.83,-18.79 22.37,-25.95 10.52,-7.17 24.31,-11.84 41.35,-12.31 l 0.01,0 c 1.34,-0.04 2.67,-0.06 3.98,-0.06 0.02,0 0.04,0 0.06,0 17,0 30.95,3.28 42.12,8.44 16.82,7.73 27.06,19.56 32.87,29.33 0.42,0.7 0.81,1.39 1.19,2.06 3.58,-2.79 7.48,-5.11 11.56,-6.96 9.27,-4.21 19.48,-6.13 29.72,-6.13 13.08,0.01 26.26,3.12 37.77,9.29 11.48,6.16 21.41,15.6 26.82,28.24 3.85,8.99 5.45,17.68 5.45,25.61 -0.01,11.96 -3.55,21.99 -7.62,29.6 l 11.16,0.05 c 5.52,0.03 9.98,4.53 9.95,10.05 -0.02,5.51 -4.5,9.95 -10,9.95 -0.01,0 -0.03,0 -0.05,0 l -30.95,-0.14 c -4.17,-0.02 -7.86,-2.59 -9.32,-6.5 -1.46,-3.9 -0.37,-8.26 2.76,-11.01 l 0.01,-0.01 c 0.48,-0.43 4.18,-3.98 7.57,-9.65 3.42,-5.69 6.49,-13.31 6.48,-22.34 0,-5.29 -1.02,-11.15 -3.83,-17.76 -3.28,-7.69 -9.58,-13.99 -17.9,-18.47 -8.25,-4.46 -18.39,-6.91 -28.21,-6.91 -0.03,0 -0.06,0 -0.09,0 -0.01,0 -0.03,0 -0.04,0 -7.7,0 -15.16,1.49 -21.4,4.33 -5.34,2.44 -9.76,5.77 -13.09,10.07 -0.02,7.07 -1.2,23.17 -9.46,44.87 16.78,8.46 36.16,31.31 10.61,41.29 0,0 -8.13,1.55 -19.14,1.55 -13.85,0 -32.25,-2.46 -44.71,-13.58 -18.76,-16.77 12.62,-28.47 32.66,-31.64 9.18,-21.98 10.04,-37.53 10.04,-42.75 l -0.02,-1.32 c -0.67,-2.44 -3.59,-11.44 -11.29,-19.93 -4.43,-4.9 -10.39,-9.71 -18.67,-13.39 -8.28,-3.67 -18.97,-6.24 -33.01,-6.24 -1.11,0 -2.25,0.01 -3.41,0.05 l 0,0 c -13.82,0.43 -23.44,3.97 -30.69,8.87 -10.79,7.31 -16.74,18.43 -19.97,29.02 -3.23,10.52 -3.52,20.11 -3.51,22.63 l 0,0.55 0.01,0.07 0,0 c 0.11,3.11 -1.22,6.07 -3.61,8.06 -1.81,1.5 -4.07,2.31 -6.38,2.31 -0.73,0 -1.46,-0.08 -2.19,-0.25 l -25.397,-5.68 c -5.39,-1.21 -8.777,-6.55 -7.574,-11.94 1.043,-4.66 5.172,-7.82 9.75,-7.82 0.723,0 1.457,0.08 2.191,0.24 l 13.95,3.13" />
      <path
         inkscape:connector-curvature="0"
         id="path424"
         style="fill:#39283b;fill-opacity:1;fill-rule:nonzero;stroke:none"
         d="m 908.41,2871.6 c -4.5,0 -7.527,0.55 -7.527,0.55 -23.891,3.56 -34.735,26.65 -36.238,51.55 24.683,9.85 50.828,17.13 77.98,22.51 3.609,-13.04 4.98,-27.33 3.727,-40.58 -2.84,-29.99 -25.774,-34.03 -37.942,-34.03" />
      <path
         inkscape:connector-curvature="0"
         id="path426"
         style="fill:#39283b;fill-opacity:1;fill-rule:nonzero;stroke:none"
         d="m 1295.39,2926.56 c -4.49,0 -7.52,0.55 -7.52,0.55 -19.09,2.85 -29.84,18.15 -34.17,36.89 27.13,0.86 53.94,2.26 80.09,4.74 -0.04,-2.75 -0.19,-5.48 -0.44,-8.16 -2.85,-29.98 -25.78,-34.02 -37.96,-34.02" />
      <path
         inkscape:connector-curvature="0"
         id="path428"
         style="fill:#39283b;fill-opacity:1;fill-rule:nonzero;stroke:none"
         d="m 1135.8,2824.36 c -20.04,3.17 -51.42,14.87 -32.66,31.64 12.46,11.12 30.86,13.58 44.71,13.58 11.01,0 19.14,-1.55 19.14,-1.55 25.55,-9.98 6.17,-32.83 -10.61,-41.29 -1.6,4.21 -3.48,8.65 -5.66,13.26 -1.71,3.62 -5.3,5.74 -9.05,5.74 -1.43,0 -2.88,-0.31 -4.26,-0.97 -5,-2.36 -7.13,-8.32 -4.77,-13.31 1.15,-2.43 2.2,-4.8 3.16,-7.1" />
      <path
         inkscape:connector-curvature="0"
         id="path430"
         style="fill:#39283b;fill-opacity:1;fill-rule:nonzero;stroke:none"
         d="m 1082.91,2720.73 c -0.02,0 -0.04,0 -0.06,0 -1.31,0 -2.64,0.02 -3.98,0.06 l -0.01,0 c -17.04,0.47 -30.83,5.14 -41.35,12.31 -10.54,7.16 -17.66,16.61 -22.37,25.95 -5.7,11.39 -8.1,22.68 -9.12,30.92 l -13.95,-3.13 c -0.734,-0.16 -1.468,-0.24 -2.191,-0.24 -4.578,0 -8.707,3.16 -9.75,7.82 -1.203,5.39 2.184,10.73 7.574,11.94 l 25.397,5.68 c 0.73,0.17 1.46,0.25 2.19,0.25 2.31,0 4.57,-0.81 6.38,-2.31 2.39,-1.99 3.72,-4.95 3.61,-8.06 l 0,0 -0.01,-0.07 0,-0.55 c -0.01,-2.52 0.28,-12.11 3.51,-22.63 3.23,-10.59 9.18,-21.71 19.97,-29.02 7.25,-4.9 16.87,-8.44 30.69,-8.87 l 0,0 c 1.16,-0.04 2.3,-0.05 3.41,-0.05 14.04,0 24.73,2.57 33.01,6.24 8.28,3.68 14.24,8.49 18.67,13.39 7.7,8.49 10.62,17.49 11.29,19.93 l -0.01,-0.26 -0.02,-0.3 0,-0.02 c -0.46,-5.48 3.58,-10.31 9.06,-10.81 0.31,-0.03 0.61,-0.04 0.92,-0.04 5.11,0 9.47,3.9 9.95,9.09 l 0,0 c 0.02,0.28 0.12,1.53 0.12,3.66 0,0.09 0,0.17 0,0.26 3.33,-4.3 7.75,-7.63 13.09,-10.07 6.24,-2.84 13.7,-4.33 21.4,-4.33 0.01,0 0.03,0 0.04,0 0.03,0 0.06,0 0.09,0 9.82,0 19.96,2.45 28.21,6.91 8.32,4.48 14.62,10.78 17.9,18.47 2.81,6.61 3.83,12.47 3.83,17.76 0.01,9.03 -3.06,16.65 -6.48,22.34 -3.39,5.67 -7.09,9.22 -7.57,9.65 l -0.01,0.01 c -3.13,2.75 -4.22,7.11 -2.76,11.01 1.46,3.91 5.15,6.48 9.32,6.5 l 30.95,0.14 c 0.02,0 0.04,0 0.05,0 5.5,0 9.98,-4.44 10,-9.95 0.03,-5.52 -4.43,-10.02 -9.95,-10.05 l -11.16,-0.05 c 4.07,-7.61 7.61,-17.64 7.62,-29.6 0,-7.93 -1.6,-16.62 -5.45,-25.61 -5.41,-12.64 -15.34,-22.08 -26.82,-28.24 -11.51,-6.17 -24.69,-9.28 -37.77,-9.29 -10.24,0 -20.45,1.92 -29.72,6.13 -4.08,1.85 -7.98,4.17 -11.56,6.96 -0.38,-0.67 -0.77,-1.36 -1.19,-2.06 -5.81,-9.77 -16.05,-21.6 -32.87,-29.33 -11.17,-5.16 -25.12,-8.44 -42.12,-8.44" />
      <path
         inkscape:connector-curvature="0"
         id="path432"
         style="fill:#39283b;fill-opacity:1;fill-rule:nonzero;stroke:none"
         d="m 1155.77,2768.86 c -0.31,0 -0.61,0.01 -0.92,0.04 -5.48,0.5 -9.52,5.33 -9.06,10.81 l 0,0.02 0.02,0.3 0.01,0.26 0.02,1.32 c 0,5.22 -0.86,20.77 -10.04,42.75 -0.96,2.3 -2.01,4.67 -3.16,7.1 -2.36,4.99 -0.23,10.95 4.77,13.31 1.38,0.66 2.83,0.97 4.26,0.97 3.75,0 7.34,-2.12 9.05,-5.74 2.18,-4.61 4.06,-9.05 5.66,-13.26 8.26,-21.7 9.44,-37.8 9.46,-44.87 0,-0.09 0,-0.17 0,-0.26 0,-2.13 -0.1,-3.38 -0.12,-3.66 l 0,0 c -0.48,-5.19 -4.84,-9.09 -9.95,-9.09 m -4.13,10.37 0,0 m 0,0 0,0" />
      <path
         inkscape:connector-curvature="0"
         id="path434"
         style="fill:#e2bab1;fill-opacity:1;fill-rule:nonzero;stroke:none"
         d="m 780.992,2736.98 c -32.652,0.01 -58.047,18.04 -73.066,37.5 18.867,32.1 36.191,62.4 61.23,88.53 15.317,-4.3 31.953,-13.69 48.93,-29.8 58.633,-55.6 1.617,-88.13 1.617,-88.13 -13.781,-5.67 -26.73,-8.1 -38.711,-8.1" />
      <path
         inkscape:connector-curvature="0"
         id="path436"
         style="fill:#e2bab1;fill-opacity:1;fill-rule:nonzero;stroke:none"
         d="m 1420.24,2864.37 c -4.01,0 -8.16,0.22 -12.46,0.69 0,0 -63.83,15.37 -23,85.12 7,11.95 14.53,21.61 22.31,29.24 24.68,5.11 48.42,11.84 70.88,20.76 21.1,-7.29 35.82,-26.65 34.94,-49.34 -1.2,-31.38 -29.53,-86.47 -92.67,-86.47" />
      <path
         inkscape:connector-curvature="0"
         id="path438"
         style="fill:#f9b039;fill-opacity:1;fill-rule:nonzero;stroke:none"
         d="m 2270.11,2933.51 c -203.79,8.79 -893.05,-23.5 -1126.92,-8.9 -233.854,14.61 -325.354,-49.36 -355.866,-93.62 C 756.816,2786.71 597.09,948.66 637.766,806.242 678.434,663.801 2314.27,755.492 2415.95,800.07 c 101.67,44.59 -54.33,1856.08 -64.5,1931.53 -10.17,75.44 -9.61,198.83 -81.34,201.91" />
      <path
         inkscape:connector-curvature="0"
         id="path440"
         style="fill:#e79c36;fill-opacity:1;fill-rule:nonzero;stroke:none"
         d="m 2275.41,2487.63 c -3.64,44.83 -6.78,81.99 -9.21,109.46 -1.21,13.74 -2.25,25.06 -3.08,33.72 -0.84,8.7 -1.45,14.59 -1.9,18.1 -2.11,16.37 -3.73,36.11 -5.92,56.55 -3.37,30.72 -7.71,62.87 -18.48,90.04 -5.45,13.56 -12.63,26.16 -23.35,36.2 -5.34,4.98 -11.6,9.24 -18.64,12.26 -7.03,3.03 -14.79,4.78 -22.84,5.13 -22.22,1 -50.51,1.42 -83.61,1.42 -105.11,-0.01 -258.69,-4.2 -412.39,-7.82 -77.3,-1.83 -154.61,-3.49 -225.67,-4.4 -35.69,-0.46 -69.8,-0.73 -101.53,-0.73 -60.73,0 -112.85,0.99 -150.29,3.45 -20.46,1.34 -39.72,1.97 -57.88,1.97 -82.43,-0.01 -141.979,-12.95 -184.788,-31.44 -42.785,-18.48 -68.691,-42.61 -82.902,-64.25 l 0.008,0.01 c -1.286,-1.98 -1.926,-3.43 -2.5,-4.78 -1.059,-2.59 -1.719,-4.86 -2.415,-7.46 -1.257,-4.83 -2.441,-10.67 -3.726,-17.94 -4.453,-25.28 -9.93,-67.78 -16.238,-124.04 -6.301,-56.21 -13.383,-125.98 -20.86,-204.93 -1.043,-11 7.028,-20.76 18.024,-21.8 10.996,-1.04 20.757,7.03 21.797,18.02 9.39,99.15 18.152,183.73 25.472,244.73 3.656,30.49 6.961,55.11 9.754,72.48 1.391,8.67 2.668,15.56 3.715,20.19 0.512,2.29 0.98,4.04 1.262,4.93 l 0.16,0.47 0.027,0.08 -10.164,4.04 9.094,-5.99 c 0.918,1.43 1.019,1.88 1.07,1.95 l -10.164,4.04 9.094,-5.99 0.008,0.01 c 9.539,14.48 28.769,33.68 65.355,49.51 36.567,15.82 90.637,28.17 168.917,28.16 17.23,0 35.63,-0.6 55.26,-1.88 39.08,-2.56 91.71,-3.53 152.91,-3.54 31.95,0 66.23,0.27 102.04,0.73 71.31,0.91 148.74,2.58 226.1,4.41 153.75,3.62 307.32,7.81 411.45,7.81 32.75,0 60.61,-0.42 81.81,-1.38 4.76,-0.24 8.1,-1.33 11.3,-3.16 2.78,-1.62 5.5,-3.96 8.24,-7.35 4.8,-5.9 9.39,-15.12 13.06,-26.65 5.57,-17.28 9.15,-39.37 11.75,-61.98 2.64,-22.65 4.39,-45.8 7.01,-66.19 0.32,-2.42 0.94,-8.34 1.75,-16.81 2.46,-25.56 6.8,-75.48 12.24,-142.59 0.9,-11.01 10.55,-19.21 21.56,-18.32 11.01,0.9 19.21,10.54 18.31,21.55" />
      <path
         inkscape:connector-curvature="0"
         id="path442"
         style="fill:#e79c36;fill-opacity:1;fill-rule:nonzero;stroke:none"
         d="m 2305.17,2087.71 c -2.95,43.26 -5.91,85.34 -8.83,125.76 -0.79,11.02 -10.36,19.3 -21.38,18.51 -11.02,-0.79 -19.31,-10.37 -18.51,-21.39 2.91,-40.36 5.86,-82.4 8.81,-125.6 0.75,-11.02 10.3,-19.35 21.32,-18.6 11.02,0.76 19.34,10.3 18.59,21.32" />
      <path
         inkscape:connector-curvature="0"
         id="path444"
         style="fill:#e79c36;fill-opacity:1;fill-rule:nonzero;stroke:none"
         d="m 2345.08,1300.43 c -4.07,179.48 -15.13,396.36 -27.95,603.35 -0.68,11.02 -10.17,19.4 -21.19,18.72 -11.03,-0.68 -19.41,-10.17 -18.73,-21.2 12.8,-206.66 23.83,-423.18 27.88,-601.77 0.25,-11.05 9.41,-19.79 20.45,-19.54 11.04,0.25 19.79,9.4 19.54,20.44" />
      <path
         inkscape:connector-curvature="0"
         id="path446"
         style="fill:#e79c36;fill-opacity:1;fill-rule:nonzero;stroke:none"
         d="m 2020.29,843.238 c 74.52,5.801 138.77,11.942 187.47,17.973 24.37,3.008 44.83,5.988 60.96,8.941 8.07,1.469 15.06,2.93 21.05,4.45 6.03,1.546 10.93,3.007 15.71,5.179 l -0.01,-0.011 c 6.85,3.222 11.08,8.039 14.24,12.71 5.44,8.309 8.54,17.5 11.45,28.75 4.2,16.809 7.23,38.18 9.58,64.192 2.33,25.968 3.91,56.468 4.87,90.858 0.3,11.04 -8.4,20.24 -19.44,20.55 -11.04,0.3 -20.24,-8.4 -20.55,-19.44 -1.41,-51.49 -4.31,-93.749 -8.75,-123.058 -2.19,-14.613 -4.84,-26.031 -7.38,-33 -1.23,-3.473 -2.45,-5.781 -3.02,-6.602 l -0.24,-0.332 2.83,-2.328 -2.31,2.809 -0.52,-0.481 2.83,-2.328 -2.31,2.809 5.89,-7.168 -3.86,8.418 c -0.96,-0.438 -1.63,-0.918 -2.03,-1.25 l 5.89,-7.168 -3.86,8.418 -0.01,-0.008 c -0.79,-0.391 -4.13,-1.582 -8.82,-2.742 -8.3,-2.109 -21.08,-4.539 -37.26,-7.02 -48.66,-7.488 -128.28,-15.679 -225.5,-23.238 -11.02,-0.851 -19.25,-10.469 -18.39,-21.492 0.85,-11.008 10.47,-19.238 21.49,-18.391" />
      <path
         inkscape:connector-curvature="0"
         id="path448"
         style="fill:#e79c36;fill-opacity:1;fill-rule:nonzero;stroke:none"
         d="m 1251.84,814.359 c 13.32,-0.089 26.77,-0.129 40.33,-0.129 102.22,0 210.53,2.301 316.84,6.129 11.04,0.403 19.67,9.672 19.27,20.711 -0.4,11.039 -9.67,19.668 -20.71,19.27 -105.91,-3.82 -213.77,-6.11 -315.4,-6.11 -13.48,0 -26.85,0.04 -40.08,0.129 -11.05,0.063 -20.06,-8.839 -20.13,-19.879 -0.07,-11.05 8.83,-20.058 19.88,-20.121" />
      <path
         inkscape:connector-curvature="0"
         id="path450"
         style="fill:#e79c36;fill-opacity:1;fill-rule:nonzero;stroke:none"
         d="m 740.957,1216.41 c -3.98,-86.8 -6.273,-161.02 -6.273,-216.512 0,-24.429 0.441,-45.218 1.406,-62.058 0.484,-8.43 1.098,-15.86 1.887,-22.371 0.8,-6.539 1.726,-12.078 3.109,-17.199 l 0,0.011 c 2.019,-7.441 6.102,-13.761 10.934,-18.859 8.554,-8.942 19.375,-15.082 32.308,-20.582 19.418,-8.129 44.063,-14.449 73.777,-19.852 29.692,-5.367 64.364,-9.687 103.137,-13.156 11,-0.98 20.719,7.137 21.699,18.137 0.985,11 -7.136,20.722 -18.136,21.703 -57.766,5.148 -105.672,12.308 -138.731,21.297 -16.492,4.453 -29.25,9.441 -37.062,14.043 -3.914,2.258 -6.539,4.398 -7.903,5.859 l -1.257,1.59 -0.164,0.309 -0.016,0.039 -0.289,-0.098 0.297,0.078 -0.008,0.02 -0.289,-0.098 0.297,0.078 -0.004,0.012 c -0.582,2.09 -1.352,6.148 -1.988,11.48 -1.977,16.141 -3.02,43.77 -3.004,79.617 0,54.422 2.265,128.242 6.234,214.672 0.504,11.04 -8.031,20.39 -19.063,20.9 -11.035,0.5 -20.39,-8.03 -20.894,-19.07" />
      <path
         inkscape:connector-curvature="0"
         id="path452"
         style="fill:#e79c36;fill-opacity:1;fill-rule:nonzero;stroke:none"
         d="m 815.75,1578.32 24.73,363.83 c 0.75,11.02 -7.578,20.56 -18.597,21.31 -11.02,0.75 -20.563,-7.58 -21.309,-18.6 l -24.73,-363.83 c -0.75,-11.02 7.574,-20.56 18.597,-21.31 11.02,-0.74 20.559,7.58 21.309,18.6" />
      <path
         inkscape:connector-curvature="0"
         id="path454"
         style="fill:#ffffff;fill-opacity:1;fill-rule:nonzero;stroke:none"
         d="m 745.289,2515.18 c 0,0 -66.055,-23.46 -89.644,-127.25 -23.59,-103.81 62.496,-264.33 162.32,-231.31 99.848,33.03 7.828,92.69 7.828,92.69 0,0 30.828,9.42 36.859,56.96 6.016,47.57 -50.254,52.51 -50.254,52.51 0,0 25.508,26.79 4.457,54.72 -17.3,22.94 -67.339,18.56 -79.66,21.37 l 8.094,80.31" />
      <path
         inkscape:connector-curvature="0"
         id="path456"
         style="fill:#ffffff;fill-opacity:1;fill-rule:nonzero;stroke:none"
         d="m 1690.57,2926.6 c 0,0 29.12,63.75 134.57,78.21 105.47,14.44 257.88,-85.31 216.28,-181.87 -41.61,-96.59 -93.02,0.28 -93.02,0.28 0,0 -12.07,-29.89 -59.95,-31.76 -47.91,-1.84 -47.93,54.65 -47.93,54.65 0,0 -28.92,-23.07 -54.9,0.34 -21.35,19.22 -12.62,68.69 -14.35,81.21 l -80.7,-1.06" />
    </g>
  </g>
</svg>
